﻿ID,VR 1st file,VR 2nd file,VR 3rd file,Screen 1st file,Screen 2nd file,Screen 3rd file,VR Top5,Screen Top5,All Top5
E1 T2,66.6,75.0,58.3,83.3,83.3,83.3,100.0,100.0,100.0
E1 T3,83.6,66.6,58.3,100.0,83.3,75.0,83.6,100.0,91.6
E1 T4,83.6,83.6,83.6,100.0,100.0,91.6,100.0,100.0,100.0
E1 T5.2,83.3,91.6,50.0,100.0,100.0,91.6,91.6,100.0,95.8
E1 T5.3,75.0,100.0,83.6,100.0,75.0,66.6,100.0,91.6,95.8
E1 T5.4,83.6,100.0,66.6,100.0,100.0,91.6,91.6,100.0,95.8
E2 T2,84.6,84.6,76.9,76.9,69.2,53.8,100.0,97.4,98.7
E2 T3,92.3,84.6,84.6,100.0,46.2,61.5,92.3,94.9,93.5
E2 T5,100.0,100.0,92.3,100.0,100.0,69.2,100.0,100.0,100.0
E2 T4,46.2,46.2,30.8,38.5,15.4,0,94.9,92.3,93.6
E2 T6,84.6,N/A,N/A,61.5,N/A,N/A,100.0,92.3,96.2