AGE,JOB_POSTION,EXP_PRG,EXP_IDE,YEARS_PRG,YEARS_IDE,FAM_JETUML,EXP_SOFTVIS,VR_HEADSET,T1_location,T1_dif,T1_dt,T2_file1,T2_file2,T2_file3,T2_dif,T2_dt,T3_file1,T3_file2,T3_file3,T3_dif,T3_dt,T4_file1,T4_file2,T4_file3,T4_dif,T4_dt,T5_file1,T5_file2,T5_file3,T5_dif,T5_dt,T6_file1,T6_dif,T6_dt,T7_core,T7_dt,DIFFICULT,SUGGESTION,SUPERVISOR NOTES
43,Professor,Advanced,Advanced,10+,4-6,None,Knowledgeable,-,Big block west side of the city,Disagree,1:23,JSONObject.java,EditorFrame.java,SegmentationStyleFactory.java,Strongly Disagree,1:51,SequenceDiagramViewer.java,EditorFrame.java,Node.java,Disagree,1:40,SegmentationStyleFactory.java,EditorFrame.java,DiagramCanvasController.java,Agree,2:00,JSONObject.java,SegmentationStyleFactory.java,DiagramCanvasController.java,Disagree,0:50,PackageNode.java,Don't know,2:51,Inside the jetuml/aplication folder. The main file is jetuml.java that not belongs to any district. ,3:45,Don't know,"The system is clear represented, with its modules. The navigation is difficult, the experience is not comfortable and easy. CCN is not useful. Navigation",
52,Professor,Advanced,Advanced,10+,10+,None,Knowledgeable,-,West side of the city,Disagree,2:38,JSONObject.java,EditorFrame.java,SegmentationStyleFactory.java,Disagree,3:32,SequenceDiagramViewer.java,Node.java,Prototypes.java,Disagree,2:38,JSONObject.java,SegmentationStyleFactory.java,EditorFrame.java,Agree,2:35,JSONObject.java,SegmentationStyleFactory.java,ControlFlow.java,Disagree,1:07,ImplicitParameterNode.java,Strongly Agree,4:42,"Following the names and the sizes, the core is located inside the diagrambuilder folder",2:00,Don't know,"The task about the volume don't contribute much. The color helps and it is difficult to move around the city and get the camera into the same plane than the buildings to compare the height, area, etc.  The core question is fuzzy and to estimate the lines of code as well.",Two times she/he had to reset the view refreshing the page
39,Researcher,Advanced,Expert,10+,10+,None,Expert,-,Everything under the test/ folder,Disagree,4:27,JSONObject.java,EditorFrame.java,SegmentationStyleFactory.java,Agree,3:54,SequenceDiagramViewer.java,Node.java,ActorNodeViewer.java,Don't know,2:00,EditorFrame.java,SegmentationStyleFactory.java,DiagramCanvasController.java,Disagree,1:33,JSONObject.java,SegmentationStyleFactory.java,ControlFlow.java,Strongly Disagree,1:01,ImplicitParameterNode.java,Agree,2:00,"The folders src/ca/mcgill/cs/jetuml/viewer/edges, src/ca/mcgill/cs/jetuml/viewer/nodes and src/ca/mcgill/cs/jetuml/views because are in the center of the city, are more populated and the names match with a core name.",2:08,Disagree,"The building image looks really useful, the color was really useful, the height was helpful, but the keyword and mouse are not helpful. I don't feel in control beacuse I can go thorugh walls, it needs many movements.",T2 took a lot of time cause first of all she/he was looking for test files
19,Student,Knowledgeable,Knowledgeable,1-3,1-3,None,Beginner,-,"test folder, left",Disagree,1:30,JSONObject.java,EditorFrame.java,DiagramCanvasController.java,Disagree,2:04,SequenceDiagramViewer.java,ArrowHeadView.java,Node.java,Disagree,1:54,JSONObject.java,SegmentationStyleFactory.java,EditorFrame.java,Disagree,1:31,JSONObject.java,SegmentationStyleFactory.java,DiagramCanvasController.java,Disagree,1:35,PackageNode.java,Agree,3:11,"The core is under src/org/json because it has teh file with the biggest code, JSONObject.java. It can be also inside the src/ca/mcgill/cs/jetuml/diagram/constrains and /cs/jetuml/viewers/edges.",1:42,Don't know,The interface is fuzzy when you open more than one quarter tooltip.,
18,Student,Knowledgeable,Beginner,4-6,1-3,None,Beginner,-,test block,Disagree,1:24,SegmentationStyleFactory.java,DiagramCanvasController.java,DiagramTab.java,Don't know,3:34,SequenceDiagramViewer.java,MoveTracker.java,Node.java,Don't know,2:38,EditorFrame.java,SegmentationStyleFactory.java,DiagramCanvasController.java,Don't know,2:04,JSONObject.java,SegmentationStyleFactory.java,ControlFlow.java,Don't know,0:40,SequenceDiagramViewer.java,Don't know,1:45,"The core is under the src/ca/mcgill/cs/jetuml folder, beacuse is the folder where is all the code",2:12,Disagree,None,
21,Student,Knowledgeable,Beginner,4-6,4-6,None,None,-,Test files west side,Strongly Disagree,1:32,JSONObject.java,EditorFrame.java,SegmentationStyleFactory.java,Agree,2:39,SequenceDiagramViewer.java,MoveTracker.java,Node.java,Disagree,2:15,JSONObject.java,SegmentationStyleFactory.java,EditorFrame.java,Agree,3:12,JSONObject.java,SegmentationStyleFactory.java,ControlFlow.java,Strongly Disagree,0:35,ImplicitParameterNode.java,Don't know,2:00,The core is src/ca/mcgill/cs/jetuml/viewers/edges because it is the zone with more code and the code is more complex (ccn).  Along with the ui folder.,2:03,Agree,None,
20,Student,Knowledgeable,Knowledgeable,1-3,1-3,None,None,-,All the west side of the city,Disagree,1:54,EditorFrame.java,SegmentationStyleFactory.java,DiagramCanvasController.java,Disagree,2:30,SequenceDiagramViewer.java,MoveTracker.java,Node.java,Disagree,1:30,SegmentationStyleFactory.java,DiagramCanvasController.java,EditorFrame.java,Agree,1:42,JSONObject.java,SegmentationStyleFactory.java,DiagramCanvasController.java,Strongly Disagree,0:52,PackageNode.java,Don't know,1:35,"The core are JSONObject.java, segmentatcionstylefactory.java, segmetationstylefactory and diagramcanvascontroller. And the folder src/ca/mcgill/cs/jetuml/viewerts because is where most of the code is allocated",2:56,Disagree,The volume is the most difficult task.,
18,Student,Beginner,Beginner,1-3,1-3,None,None,-,Left side,Disagree,3:40,JSONObject.java,SegmentationStyleFactory.java,DiagramCanvasController.java,Disagree,3:45,SequenceDiagramViewer.java,MoveTracker.java,Node.java,Disagree,2:02,JSONObject.java,SegmentationStyleFactory.java,ControlFlow.java,Disagree,2:02,JSONObject.java,SegmentationStyleFactory.java,ControlFlow.java,Strongly Disagree,1:16,ImplicitParameterNode.java,Disagree,3:27,"The core part is in the middle, with more population of buildings. ",4:04,Disagree,None,
23,Developer,Knowledgeable,Advanced,4-6,4-6,None,Beginner,-, Left side,Disagree,2:13,JSONObject.java,SegmentationStyleFactory.java,DiagramCanvasController.java,Agree,4:17,SequenceDiagramViewer.java,MoveTracker.java,Node.java,Strongly Disagree,1:50,JSONObject.java,EditorFrame.java,SegmentationStyleFactory.java,Don't know,3:58,JSONObject.java,SegmentationStyleFactory.java,DiagramCanvasController.java,Disagree,1:40,PackageNode.java,Don't know,2:20,"I think that the most important part (the core) is the right side of the city, the folder src/ca",2:11,Disagree,It is hard to move the camera with the mouse and keyboard,
21,Student,Knowledgeable,Knowledgeable,4-6,4-6,None,None,-,All inside the left part of the city,Disagree,1:56,SegmentationStyleFactory.java,EditorFrame.java,DiagramCanvasController.java,Don't know,2:59,SequenceDiagramViewer.java,Node.java,Prototypes.java,Disagree,2:36,SegmentationStyleFactory.java,DiagramCanvasController.java,EditorFrame.java,Don't know,2:33,JSONObject.java,SegmentationStyleFactory.java,ControlFlow.java,Disagree,1:00,ImplicitParameterNode.java,Disagree,3:03,"The core is under the src/ca/mcgill/cs/jetuml/application, not sure because the files don't seems that have core names. I would say the buildings in the middle. The gui is not that important but visually it seems important.",4:15,Disagree,"Movement issues, hard to put the camera in an specific point (to see the heights for instance). The task 7 is difficult to know. I will increase the size of the table cause the movements.",
18,Student,Beginner,Beginner,1-3,1-3,None,None,-,"Left side, under the test folder",Disagree,1:28,JSONObject.java,EditorFrame.java,SegmentationStyleFactory.java,Disagree,2:10,SequenceDiagramViewer.java,Node.java,ArrowHeadView.java,Disagree,2:14,JSONObject.java,SegmentationStyleFactory.java,ControlFlow.java,Agree,1:40,JSONObject.java,SegmentationStyleFactory.java,ControlFlow.java,Strongly Disagree,1:02,ImplicitParameterNode.java,Disagree,1:50,"The src/org is the core of the project, because JSONObject.java is the most important code, more ccn. ",2:48,Disagree,I would improve the height scale to notice small changes. ,
40,Sysadmin,Advanced,Advanced,10+,10+,None,None,-,Left under test/ca folder,Agree,3:45,JSONObject.java,EditorFrame.java,SegmentationStyleFactory.java,Agree,2:43,SequenceDiagramViewer.java,Node.java,ArrowHeadView.java,Agree,1:57,SegmentationStyleFactory.java,JSONObject.java,EditorFrame.java,Strongly Agree,3:19,JSONObject.java,SegmentationStyleFactory.java,ControlFlow.java,Disagree,1:07,ImplicitParameterNode.java,Disagree,2:01,Buiildings in the center of the city.,3:01,Agree,"It was difficult because I'm not used to 3D environments and videogames, so the use of keyboard and mouse is a bit tricky for me. So i would improve movement.",
30,Sysadmin,Advanced,Advanced,1-3,1-3,None,None,-,"Left side, test district",Disagree,1:00,JSONObject.java,EditorFrame.java,SegmentationStyleFactory.java,Disagree,3:10,SequenceDiagramViewer.java,MoveTracker.java,Node.java,Disagree,1:53,SegmentationStyleFactory.java,DiagramBuilder.java,EditorFrame.java,Disagree,1:46,JSONObject.java,SegmentationStyleFactory.java,ControlFlow.java,Disagree,0:56,ImplicitParameterNode.java,Disagree,1:54,"The core or most important part of the project is under the gui folder because it contains most of the biggest buildings, and most of the code are there.",2:48,Disagree,"I would add a way to move de camera in the Y axis with a button, for instance the space tab. And it would be interesting if you click in the building a line/plane would appear at the top in order to compare all the hgeights, cutting the other buildings in order to compare. Drag and drop buildings in order to compare with a copy semi-transparent.",