TASK ID,CORRECT ANSWER,METRIC VALUE
T1_location,"test folder, west zone of the city",NaN
T2_file1,JSONObject.java,36
T2_file2,EditorFrame.java,34
T2_file3,SegmentationStyleFactory.java,33
T2_file4,DiagramCanvasController.java,32
T2_file5,SelectionModel.java,26
T3_file1,SequenceDiagramViewer.java,27.5
T3_file2,MoveTracker.java,25.5
T3_file3,Node.java,25
T3_file4,Prototypes.java,24.75
T3_file5,ArrowHeadView.java       ,24.67
T4_file1,SegmentationStyleFactory.java,570
T4_file2,EditorFrame.java,567
T4_file3,JSONObject.java,534
T4_file4,DiagramCanvasController.java,448
T4_file5,StateTransitionEdgeViewer.java,357
T5_file1,JSONObject.java,195
T5_file2,SegmentationStyleFactory.java,120
T5_file3,ControlFlow.java,95
T5_file4,DiagramCanvasController.java,87
T5_file5,JSONTokener.java,65
T6_file1,ImplicitParameterNode.java,9.17
T6_file2,PackageNode.java,9.14
T6_file3,ActorNode.java,9